4 Explorative Data Analysis | Sleep Revolution: Sleep Apnea Cost
…
4.1.7 Calculator datas

## # A tibble: 27 × 13
##    cause_id type       condition                 OSA_severity    gender multiplier    OR    RR   PAF prevalence_base_italy direct…¹ direc…² produ…³
##       <dbl> <chr>      <chr>                     <chr>           <chr>       <dbl> <dbl> <dbl> <dbl>                 <dbl>    <dbl>   <dbl>   <dbl>
##  1      294 mortality  All-cause mortality       Severe          Both        1     NA     1.54 0.075                 0.003       NA      NA      NA
##  2     1023 mortality  Cardiovascular mortality  Severe          Both        1     NA     2.96 0.227                 0.001       NA      NA      NA
##  3     1029 prevalence Cancer Overall            Overall         Both        1     NA     1.4  0.097                 0.042     5718    4581     119
##  4      669 prevalence Diabetic retinopathy      Overall         Both        0.124  2.01 NA    0.207                 0.026      307     242     579
##  5      998 prevalence Diabetic kidney disease   Overall         Both        1      1.59 NA    0.135                 0.015      797      NA      NA
##  6      976 prevalence Type 2 diabetes           Moderate-Severe Both        1     NA     1.63 0.145                 0.068     3866      NA    4352
##  7      619 prevalence Metabolic syndrome        Mild            Both        2.06   2.39 NA    0.164                 0.33      1900      NA      90
##  8      619 prevalence Metabolic syndrome        Moderate-Severe Both        2.06   3.42 NA    0.232                 0.33      1900      NA      NA
##  9      594 prevalence Erectile dysfunction      Overall         Male        0.735 NA     1.82 0.228                 0.1        407      NA      NA
## 10       NA prevalence Female sexual dysfunction Overall         Female      1     NA     2    0.153                 0.29       761      NA      NA
## # … with 17 more rows, and abbreviated variable names ¹​direct_healthcare_cost, ²​direct_nonhealthcare_cost, ³​productivity_losses_cost
…
##    <chr>           <chr>                    <chr>     <dbl> <chr>     
##  1 Mild            Mild (5≤AHI<15)          Female     0.29 AGED 15-74
##  2 Moderate        Moderate (15≤AHI<30)     Female     0.1  AGED 15-74
##  3 Severe          Severe (AHI≥30)          Female     0.09 AGED 15-74
##  4 Mild            Mild (5≤AHI<15)          Male       0.25 AGED 15-74
##  5 Moderate        Moderate (15≤AHI<30      Male       0.14 AGED 15-74
##  6 Severe          Severe (AHI≥30)          Male       0.22 AGED 15-74
##  7 Moderate-Severe Moderate-Severe (AHI≥15) Female     0.18 AGED 15-74
##  8 Moderate-Severe Moderate-Severe (AHI≥15) Male       0.36 AGED 15-74
##  9 Mild            Mild (5≤AHI<15)          Both       0.27 AGED 15-74
## 10 Moderate        Moderate (15≤AHI<30)     Both       0.12 AGED 15-74
## 11 Severe          Severe (AHI≥30)          Both       0.15 AGED 15-74
## 12 Moderate-Severe Moderate-Severe (AHI≥15) Both       0.27 AGED 15-74

## # A tibble: 193 × 4
##    location_name       pop30_69 `Mild-Moderate-Severe` `Moderate-Severe`
##    <chr>                  <dbl>                  <dbl>             <dbl>
##  1 Afghanistan          8429549                  0.361            0.139 
##  2 Albania              1357655                  0.627            0.344 
##  3 Algeria             16435999                  0.536            0.206 
##  4 Angola               6091184                  0.603            0.229 
##  5 Antigua and Barbuda    42485                  0.240            0.0708
##  6 Argentina           19016260                  0.286            0.131 
##  7 Armenia              1513141                  0.508            0.252 
##  8 Aruba                  56900                  0.244            0.0481
##  9 Australia           12110362                  0.245            0.0480
## 10 Austria              4601766                  0.487            0.284 
## # … with 183 more rows
…
